dump.vcd
$date
    Nov 17, 2025  10:59:41
$end
$version
    TOOL:	xmsim(64)	20.09-s001
$end
$timescale
    1 ns
$end

$scope module tb_top $end
$var reg       1 !    clk $end
$var reg       1 "    rst $end

$scope module inf $end
$var wire      1 #    clk  $end
$var wire      1 $    rst  $end
$var reg       8 %    data_in [7:0] $end
$var reg       1 &    w_en $end
$var reg       1 '    r_en $end
$var reg       8 (    data_out [7:0] $end
$var reg       1 )    full $end
$var reg       1 *    empty $end
$upscope $end


$scope module dut $end
$var wire      1 +    clk  $end
$var wire      1 ,    rst  $end
$var wire      8 -    data_in [7:0] $end
$var wire      1 .    w_en  $end
$var wire      1 /    r_en  $end
$var reg       8 0    data_out [7:0] $end
$var wire      1 1    full  $end
$var wire      1 2    empty  $end
$var reg       6 3    w_ptr [5:0] $end
$var reg       6 4    r_ptr [5:0] $end
$var reg       8 5    fifo[31] [7:0] $end
$var reg       8 6    fifo[30] [7:0] $end
$var reg       8 7    fifo[29] [7:0] $end
$var reg       8 8    fifo[28] [7:0] $end
$var reg       8 9    fifo[27] [7:0] $end
$var reg       8 :    fifo[26] [7:0] $end
$var reg       8 ;    fifo[25] [7:0] $end
$var reg       8 <    fifo[24] [7:0] $end
$var reg       8 =    fifo[23] [7:0] $end
$var reg       8 >    fifo[22] [7:0] $end
$var reg       8 ?    fifo[21] [7:0] $end
$var reg       8 @    fifo[20] [7:0] $end
$var reg       8 A    fifo[19] [7:0] $end
$var reg       8 B    fifo[18] [7:0] $end
$var reg       8 C    fifo[17] [7:0] $end
$var reg       8 D    fifo[16] [7:0] $end
$var reg       8 E    fifo[15] [7:0] $end
$var reg       8 F    fifo[14] [7:0] $end
$var reg       8 G    fifo[13] [7:0] $end
$var reg       8 H    fifo[12] [7:0] $end
$var reg       8 I    fifo[11] [7:0] $end
$var reg       8 J    fifo[10] [7:0] $end
$var reg       8 K    fifo[9] [7:0] $end
$var reg       8 L    fifo[8] [7:0] $end
$var reg       8 M    fifo[7] [7:0] $end
$var reg       8 N    fifo[6] [7:0] $end
$var reg       8 O    fifo[5] [7:0] $end
$var reg       8 P    fifo[4] [7:0] $end
$var reg       8 Q    fifo[3] [7:0] $end
$var reg       8 R    fifo[2] [7:0] $end
$var reg       8 S    fifo[1] [7:0] $end
$var reg       8 T    fifo[0] [7:0] $end
$upscope $end

$upscope $end

$enddefinitions $end
$dumpvars
0!
0"
0#
0$
bx %
x&
x'
bx (
x)
x*
0+
0,
bx -
x.
x/
bx 0
x1
x2
bx 3
bx 4
bx 5
bx 6
bx 7
bx 8
bx 9
bx :
bx ;
bx <
bx =
bx >
bx ?
bx @
bx A
bx B
bx C
bx D
bx E
bx F
bx G
bx H
bx I
bx J
bx K
bx L
bx M
bx N
bx O
bx P
bx Q
bx R
bx S
bx T
$end
#5
1!
1+
1#
1"
b0 4
b0 0
b0 3
12
01
1,
1$
1*
0)
b0 (
#10
0!
0+
0#
#15
1!
1+
1#
b1100110 %
1&
1'
1/
1.
b1100110 -
#20
0!
0+
0#
#25
1!
1+
1#
b1 3
02
0*
b1100110 T
#30
0!
0+
0#
#35
1!
1+
1#
b10 3
b1100110 0
b1 4
b1100110 S
b10011010 %
b10011010 -
b1100110 (
#40
0!
0+
0#
#45
1!
1+
1#
b11 3
b10 4
b10011010 R
#50
0!
0+
0#
#55
1!
1+
1#
b100 3
b10011010 0
b11 4
b10011010 Q
b1101111 %
b1101111 -
b10011010 (
#60
0!
0+
0#
#65
1!
1+
1#
b101 3
b100 4
b1101111 P
#70
0!
0+
0#
#75
1!
1+
1#
b110 3
b1101111 0
b101 4
b1101111 O
b10101010 %
b10101010 -
b1101111 (
#80
0!
0+
0#
#85
1!
1+
1#
b111 3
b110 4
b10101010 N
#90
0!
0+
0#
#95
1!
1+
1#
b1000 3
b10101010 0
b111 4
b10101010 M
b11101100 %
b11101100 -
b10101010 (
#100
0!
0+
0#
#105
1!
1+
1#
b1001 3
b1000 4
b11101100 L
#110
0!
0+
0#
#115
1!
1+
1#
b1010 3
b11101100 0
b1001 4
b11101100 K
b10110100 %
b10110100 -
b11101100 (
#120
0!
0+
0#
#125
1!
1+
1#
b1011 3
b1010 4
b10110100 J
#130
0!
0+
0#
#135
1!
1+
1#
b1100 3
b10110100 0
b1011 4
b10110100 I
b1000100 %
b1000100 -
b10110100 (
#140
0!
0+
0#
#145
1!
1+
1#
b1101 3
b1100 4
b1000100 H
#150
0!
0+
0#
#155
1!
1+
1#
b1110 3
b1000100 0
b1101 4
b1000100 G
b1100001 %
b1100001 -
b1000100 (
#160
0!
0+
0#
#165
1!
1+
1#
b1111 3
b1110 4
b1100001 F
#170
0!
0+
0#
#175
1!
1+
1#
b10000 3
b1100001 0
b1111 4
b1100001 E
b11010001 %
b11010001 -
b1100001 (
#180
0!
0+
0#
#185
1!
1+
1#
b10001 3
b10000 4
b11010001 D
#190
0!
0+
0#
#195
1!
1+
1#
b10010 3
b11010001 0
b10001 4
b11010001 C
b10111001 %
b10111001 -
b11010001 (
#200
0!
0+
0#
#205
1!
1+
1#
b10011 3
b10010 4
b10111001 B
#210
0!
0+
0#
#215
1!
1+
1#
b10100 3
b10111001 0
b10011 4
b10111001 A
b1111000 %
b1111000 -
b10111001 (
#220
0!
0+
0#
#225
1!
1+
1#
b10101 3
b10100 4
b1111000 @
#230
0!
0+
0#
#235
1!
1+
1#
b10110 3
b1111000 0
b10101 4
b1111000 ?
b11100001 %
b11100001 -
b1111000 (
#240
0!
0+
0#
#245
1!
1+
1#
b10111 3
b10110 4
b11100001 >
#250
0!
0+
0#
#255
1!
1+
1#
b11000 3
b11100001 0
b10111 4
b11100001 =
b1111111 %
b1111111 -
b11100001 (
#260
0!
0+
0#
#265
1!
1+
1#
b11001 3
b11000 4
b1111111 <
#270
0!
0+
0#
#275
1!
1+
1#
b11010 3
b1111111 0
b11001 4
b1111111 ;
b10101110 %
b10101110 -
b1111111 (
#280
0!
0+
0#
#285
1!
1+
1#
b11011 3
b11010 4
b10101110 :
#290
0!
0+
0#
#295
1!
1+
1#
b11100 3
b10101110 0
b11011 4
b10101110 9
b1110010 %
b1110010 -
b10101110 (
#300
0!
0+
0#
#305
1!
1+
1#
b11101 3
b11100 4
b1110010 8
#310
0!
0+
0#
#315
1!
1+
1#
b11110 3
b1110010 0
b11101 4
b1110010 7
b1110110 %
b1110110 -
b1110010 (
#320
0!
0+
0#
#325
1!
1+
1#
b11111 3
b11110 4
b1110110 6
#330
0!
0+
0#
#335
1!
1+
1#
b100000 3
b1110110 0
b11111 4
b1110110 5
b10101000 %
b10101000 -
b1110110 (
#340
0!
0+
0#
#345
1!
1+
1#
b100001 3
b100000 4
b10101000 T
#350
0!
0+
0#
#355
1!
1+
1#
b100010 3
b10101000 0
b100001 4
b10101000 S
b11111000 %
b11111000 -
b10101000 (
#360
0!
0+
0#
#365
1!
1+
1#
b100011 3
b100010 4
b11111000 R
#370
0!
0+
0#
#375
1!
1+
1#
b100100 3
b11111000 0
b100011 4
b11111000 Q
b10100100 %
b10100100 -
b11111000 (
#380
0!
0+
0#
#385
1!
1+
1#
b100101 3
b100100 4
b10100100 P
#390
0!
0+
0#
#395
1!
1+
1#
b100110 3
b10100100 0
b100101 4
b10100100 O
b1110000 %
b1110000 -
b10100100 (
#400
0!
0+
0#
#405
1!
1+
1#
b100111 3
b100110 4
b1110000 N
#410
0!
0+
0#
#415
1!
1+
1#
b101000 3
b1110000 0
b100111 4
b1110000 M
b101 %
b101 -
b1110000 (
#420
0!
0+
0#
#425
1!
1+
1#
b101001 3
b101000 4
b101 L
#430
0!
0+
0#
#435
1!
1+
1#
b101010 3
b101 0
b101001 4
b101 K
b10110000 %
b10110000 -
b101 (
#440
0!
0+
0#
#445
1!
1+
1#
b101011 3
b101010 4
b10110000 J
#450
0!
0+
0#
#455
1!
1+
1#
b101100 3
b10110000 0
b101011 4
b10110000 I
b1000001 %
b1000001 -
b10110000 (
#460
0!
0+
0#
#465
1!
1+
1#
b101101 3
b101100 4
b1000001 H
#470
0!
0+
0#
#475
1!
1+
1#
b101110 3
b1000001 0
b101101 4
b1000001 G
b110011 %
b110011 -
b1000001 (
#480
0!
0+
0#
#485
1!
1+
1#
b101111 3
b101110 4
b110011 F
#490
0!
0+
0#
#495
1!
1+
1#
b110000 3
b110011 0
b101111 4
b110011 E
b10001110 %
b10001110 -
b110011 (
#500
0!
0+
0#
#505
1!
1+
1#
b110001 3
b110000 4
b10001110 D
#510
0!
0+
0#
#515
1!
1+
1#
b110010 3
b10001110 0
b110001 4
b10001110 C
b11010 %
b11010 -
b10001110 (
#520
0!
0+
0#
#525
1!
1+
1#
b110011 3
b110010 4
b11010 B
#530
0!
0+
0#
#535
1!
1+
1#
b110100 3
b11010 0
b110011 4
b11010 A
b10101110 %
b10101110 -
b11010 (
#540
0!
0+
0#
#545
1!
1+
1#
b110101 3
b110100 4
b10101110 @
#550
0!
0+
0#
#555
1!
1+
1#
b110110 3
b10101110 0
b110101 4
b10101110 ?
b1010010 %
b1010010 -
b10101110 (
#560
0!
0+
0#
#565
1!
1+
1#
b110111 3
b110110 4
b1010010 >
#570
0!
0+
0#
#575
1!
1+
1#
b111000 3
b1010010 0
b110111 4
b1010010 =
b11100100 %
b11100100 -
b1010010 (
#580
0!
0+
0#
#585
1!
1+
1#
b111001 3
b111000 4
b11100100 <
#590
0!
0+
0#
#595
1!
1+
1#
b111010 3
b11100100 0
b111001 4
b11100100 ;
b1110111 %
b1110111 -
b11100100 (
#600
0!
0+
0#
#605
1!
1+
1#
b111011 3
b111010 4
b1110111 :
#610
0!
0+
0#
#615
1!
1+
1#
b111100 3
b1110111 0
b111011 4
b1110111 9
b110101 %
b110101 -
b1110111 (
#620
0!
0+
0#
#625
1!
1+
1#
b111101 3
b111100 4
b110101 8
#630
0!
0+
0#
#635
1!
1+
1#
b111110 3
b110101 0
b111101 4
b110101 7
b1000011 %
b1000011 -
b110101 (
#640
0!
0+
0#
#645
1!
1+
1#
b111111 3
b111110 4
b1000011 6
#650
0!
0+
0#
#655
1!
1+
1#
b0 3
b1000011 0
b111111 4
b1000011 5
b10000001 %
b10000001 -
b1000011 (
#660
0!
0+
0#
#665
1!
1+
1#
b1 3
b0 4
b10000001 T
#670
0!
0+
0#
#675
1!
1+
1#
b10 3
b10000001 0
b1 4
b10000001 S
b1110110 %
b1110110 -
b10000001 (
#680
0!
0+
0#
#685
1!
1+
1#
b11 3
b10 4
b1110110 R
#690
0!
0+
0#
#695
1!
1+
1#
b100 3
b1110110 0
b11 4
b1110110 Q
b1000011 %
b1000011 -
b1110110 (
#700
0!
0+
0#
#705
1!
1+
1#
b101 3
b100 4
b1000011 P
#710
0!
0+
0#
#715
1!
1+
1#
b110 3
b1000011 0
b101 4
b1000011 O
b11000001 %
b11000001 -
b1000011 (
#720
0!
0+
0#
#725
1!
1+
1#
b111 3
b110 4
b11000001 N
#730
0!
0+
0#
#735
1!
1+
1#
b1000 3
b11000001 0
b111 4
b11000001 M
b10100011 %
b10100011 -
b11000001 (
#740
0!
0+
0#
#745
1!
1+
1#
b1001 3
b1000 4
b10100011 L
#750
0!
0+
0#
#755
1!
1+
1#
b1010 3
b10100011 0
b1001 4
b10100011 K
b11001101 %
b11001101 -
b10100011 (
#760
0!
0+
0#
#765
1!
1+
1#
b1011 3
b1010 4
b11001101 J
#770
0!
0+
0#
#775
1!
1+
1#
b1100 3
b11001101 0
b1011 4
b11001101 I
b11100011 %
b11100011 -
b11001101 (
#780
0!
0+
0#
#785
1!
1+
1#
b1101 3
b1100 4
b11100011 H
#790
0!
0+
0#
#795
1!
1+
1#
b1110 3
b11100011 0
b1101 4
b11100011 G
b1001011 %
b1001011 -
b11100011 (
#800
0!
0+
0#
#805
1!
1+
1#
b1111 3
b1110 4
b1001011 F
#810
0!
0+
0#
#815
1!
1+
1#
b10000 3
b1001011 0
b1111 4
b1001011 E
b1100100 %
b1100100 -
b1001011 (
#820
0!
0+
0#
#825
1!
1+
1#
b10001 3
b10000 4
b1100100 D
#830
0!
0+
0#
#835
1!
1+
1#
b10010 3
b1100100 0
b10001 4
b1100100 C
b1001011 %
b1001011 -
b1100100 (
#840
0!
0+
0#
#845
1!
1+
1#
b10011 3
b10010 4
b1001011 B
#850
0!
0+
0#
#855
1!
1+
1#
b10100 3
b1001011 0
b10011 4
b1001011 A
b101101 %
b101101 -
b1001011 (
#860
0!
0+
0#
#865
1!
1+
1#
b10101 3
b10100 4
b101101 @
#870
0!
0+
0#
#875
1!
1+
1#
b10110 3
b101101 0
b10101 4
b101101 ?
b1000000 %
b1000000 -
b101101 (
#880
0!
0+
0#
#885
1!
1+
1#
b10111 3
b10110 4
b1000000 >
#890
0!
0+
0#
#895
1!
1+
1#
b11000 3
b1000000 0
b10111 4
b1000000 =
b10111110 %
b10111110 -
b1000000 (
#900
0!
0+
0#
#905
1!
1+
1#
b11001 3
b11000 4
b10111110 <
#910
0!
0+
0#
#915
1!
1+
1#
b11010 3
b10111110 0
b11001 4
b10111110 ;
b10011010 %
b10011010 -
b10111110 (
#920
0!
0+
0#
#925
1!
1+
1#
b11011 3
b11010 4
b10011010 :
#930
0!
0+
0#
#935
1!
1+
1#
b11100 3
b10011010 0
b11011 4
b10011010 9
b11111001 %
b11111001 -
b10011010 (
#940
0!
0+
0#
#945
1!
1+
1#
b11101 3
b11100 4
b11111001 8
#950
0!
0+
0#
#955
1!
1+
1#
b11110 3
b11111001 0
b11101 4
b11111001 7
b111011 %
b111011 -
b11111001 (
#960
0!
0+
0#
#965
1!
1+
1#
b11111 3
b11110 4
b111011 6
#970
0!
0+
0#
#975
1!
1+
1#
b100000 3
b111011 0
b11111 4
b111011 5
b1111100 %
b1111100 -
b111011 (
#980
0!
0+
0#
#985
1!
1+
1#
b100001 3
b100000 4
b1111100 T
#990
0!
0+
0#
#995
1!
1+
1#
b100010 3
b1111100 0
b100001 4
b1111100 S
b111000 %
b111000 -
b1111100 (
#1000
0!
0+
0#
#1005
1!
1+
1#
b100011 3
b100010 4
b111000 R
#1010
0!
0+
0#
#1015
1!
1+
1#
b100100 3
b111000 0
b100011 4
b111000 Q
b11100101 %
b11100101 -
b111000 (
#1020
0!
0+
0#
#1025
1!
1+
1#
b100101 3
b100100 4
b11100101 P
#1030
0!
0+
0#
#1035
1!
1+
1#
b100110 3
b11100101 0
b100101 4
b11100101 O
b10110100 %
b10110100 -
b11100101 (
#1040
0!
0+
0#
#1045
1!
1+
1#
b100111 3
b100110 4
b10110100 N
#1050
0!
0+
0#
#1055
1!
1+
1#
b101000 3
b10110100 0
b100111 4
b10110100 M
b11010 %
b11010 -
b10110100 (
#1060
0!
0+
0#
#1065
1!
1+
1#
b101001 3
b101000 4
b11010 L
#1070
0!
0+
0#
#1075
1!
1+
1#
b101010 3
b11010 0
b101001 4
b11010 K
b1011 %
b1011 -
b11010 (
#1080
0!
0+
0#
#1085
1!
1+
1#
b101011 3
b101010 4
b1011 J
#1090
0!
0+
0#
#1095
1!
1+
1#
b101100 3
b1011 0
b101011 4
b1011 I
b11001100 %
b11001100 -
b1011 (
#1100
0!
0+
0#
#1105
1!
1+
1#
b101101 3
b101100 4
b11001100 H
#1110
0!
0+
0#
#1115
1!
1+
1#
b101110 3
b11001100 0
b101101 4
b11001100 G
b11010000 %
b11010000 -
b11001100 (
#1120
0!
0+
0#
#1125
1!
1+
1#
b101111 3
b101110 4
b11010000 F
#1130
0!
0+
0#
#1135
1!
1+
1#
b110000 3
b11010000 0
b101111 4
b11010000 E
b1010110 %
b1010110 -
b11010000 (
#1140
0!
0+
0#
#1145
1!
1+
1#
b110001 3
b110000 4
b1010110 D
#1150
0!
0+
0#
#1155
1!
1+
1#
b110010 3
b1010110 0
b110001 4
b1010110 C
b1111110 %
b1111110 -
b1010110 (
#1160
0!
0+
0#
#1165
1!
1+
1#
b110011 3
b110010 4
b1111110 B
#1170
0!
0+
0#
#1175
1!
1+
1#
b110100 3
b1111110 0
b110011 4
b1111110 A
b10111100 %
b10111100 -
b1111110 (
#1180
0!
0+
0#
#1185
1!
1+
1#
b110101 3
b110100 4
b10111100 @
#1190
0!
0+
0#
#1195
1!
1+
1#
b110110 3
b10111100 0
b110101 4
b10111100 ?
b11100001 %
b11100001 -
b10111100 (
#1200
0!
0+
0#
#1205
1!
1+
1#
b110111 3
b110110 4
b11100001 >
#1210
0!
0+
0#
#1215
1!
1+
1#
b111000 3
b11100001 0
b110111 4
b11100001 =
b1001100 %
b1001100 -
b11100001 (
#1220
0!
0+
0#
#1225
1!
1+
1#
b111001 3
b111000 4
b1001100 <
#1230
0!
0+
0#
#1235
1!
1+
1#
b111010 3
b1001100 0
b111001 4
b1001100 ;
b10010000 %
b10010000 -
b1001100 (
#1240
0!
0+
0#
#1245
1!
1+
1#
b111011 3
b111010 4
b10010000 :
#1250
0!
0+
0#
#1255
1!
1+
1#
b111100 3
b10010000 0
b111011 4
b10010000 9
b11110000 %
b11110000 -
b10010000 (
#1260
0!
0+
0#
#1265
1!
1+
1#
b111101 3
b111100 4
b11110000 8
#1270
0!
0+
0#
#1275
1!
1+
1#
b111110 3
b11110000 0
b111101 4
b11110000 7
b11010001 %
b11010001 -
b11110000 (
#1280
0!
0+
0#
#1285
1!
1+
1#
b111111 3
b111110 4
b11010001 6
#1290
0!
0+
0#
#1295
1!
1+
1#
b0 3
b11010001 0
b111111 4
b11010001 5
b11110001 %
b11110001 -
b11010001 (
#1300
0!
0+
0#
#1305
1!
1+
1#
b1 3
b0 4
b11110001 T
#1310
0!
0+
0#
#1315
1!
1+
1#
b10 3
b11110001 0
b1 4
b11110001 S
b11100111 %
b11100111 -
b11110001 (
#1320
0!
0+
0#
#1325
1!
1+
1#
b11 3
b10 4
b11100111 R
#1330
0!
0+
0#
#1335
1!
1+
1#
b100 3
b11100111 0
b11 4
b11100111 Q
b11100000 %
b11100000 -
b11100111 (
#1340
0!
0+
0#
#1345
1!
1+
1#
b101 3
b100 4
b11100000 P
#1350
0!
0+
0#
#1355
1!
1+
1#
b110 3
b11100000 0
b101 4
b11100000 O
b11011100 %
b11011100 -
b11100000 (
#1360
0!
0+
0#
#1365
1!
1+
1#
b111 3
b110 4
b11011100 N
#1370
0!
0+
0#
#1375
1!
1+
1#
b1000 3
b11011100 0
b111 4
b11011100 M
b10011000 %
b10011000 -
b11011100 (
#1380
0!
0+
0#
#1385
1!
1+
1#
b1001 3
b1000 4
b10011000 L
#1390
0!
0+
0#
#1395
1!
1+
1#
b1010 3
b10011000 0
b1001 4
b10011000 K
b10011000 (
#1400
0!
0+
0#
#1405
1!
1+
1#
b1011 3
b1010 4
b10011000 J
#1410
0!
0+
0#
#1415
1!
1+
1#
b1100 3
b1011 4
b10011000 I
b11110100 %
b11110100 -
#1420
0!
0+
0#
#1425
1!
1+
1#
b1101 3
b1100 4
b11110100 H
#1430
0!
0+
0#
#1435
1!
1+
1#
b1110 3
b11110100 0
b1101 4
b11110100 G
b11111101 %
b11111101 -
b11110100 (
#1440
0!
0+
0#
#1445
1!
1+
1#
b1111 3
b1110 4
b11111101 F
#1450
0!
0+
0#
#1455
1!
1+
1#
b10000 3
b11111101 0
b1111 4
b11111101 E
b1111001 %
b1111001 -
b11111101 (
#1460
0!
0+
0#
#1465
1!
1+
1#
b10001 3
b10000 4
b1111001 D
#1470
0!
0+
0#
#1475
1!
1+
1#
b10010 3
b1111001 0
b10001 4
b1111001 C
b11010010 %
b11010010 -
b1111001 (
#1480
0!
0+
0#
#1485
1!
1+
1#
b10011 3
b10010 4
b11010010 B
#1490
0!
0+
0#
#1495
1!
1+
1#
b10100 3
b11010010 0
b10011 4
b11010010 A
b11111001 %
b11111001 -
b11010010 (
#1500
0!
0+
0#
#1505
1!
1+
1#
b10101 3
b10100 4
b11111001 @
#1510
0!
0+
0#
#1515
1!
1+
1#
b10110 3
b11111001 0
b10101 4
b11111001 ?
b10100111 %
b10100111 -
b11111001 (
#1520
0!
0+
0#
#1525
1!
1+
1#
b10111 3
b10110 4
b10100111 >
#1530
0!
0+
0#
#1535
1!
1+
1#
b11000 3
b10100111 0
b10111 4
b10100111 =
b11100110 %
b11100110 -
b10100111 (
#1540
0!
0+
0#
#1545
1!
1+
1#
b11001 3
b11000 4
b11100110 <
#1550
0!
0+
0#
#1555
1!
1+
1#
b11010 3
b11100110 0
b11001 4
b11100110 ;
b1010110 %
b1010110 -
b11100110 (
#1560
0!
0+
0#
#1565
1!
1+
1#
b11011 3
b11010 4
b1010110 :
#1570
0!
0+
0#
#1575
1!
1+
1#
b11100 3
b1010110 0
b11011 4
b1010110 9
b1010011 %
b1010011 -
b1010110 (
#1580
0!
0+
0#
#1585
1!
1+
1#
b11101 3
b11100 4
b1010011 8
#1590
0!
0+
0#
#1595
1!
1+
1#
b11110 3
b1010011 0
b11101 4
b1010011 7
b10101110 %
b10101110 -
b1010011 (
#1600
0!
0+
0#
#1605
1!
1+
1#
b11111 3
b11110 4
b10101110 6
#1610
0!
0+
0#
#1615
1!
1+
1#
b100000 3
b10101110 0
b11111 4
b10101110 5
b10111011 %
b10111011 -
b10101110 (
#1620
0!
0+
0#
#1625
1!
1+
1#
b100001 3
b100000 4
b10111011 T
#1630
0!
0+
0#
#1635
1!
1+
1#
b100010 3
b10111011 0
b100001 4
b10111011 S
b1100111 %
b1100111 -
b10111011 (
#1640
0!
0+
0#
#1645
1!
1+
1#
b100011 3
b100010 4
b1100111 R
#1650
0!
0+
0#
#1655
1!
1+
1#
b100100 3
b1100111 0
b100011 4
b1100111 Q
b11100101 %
b11100101 -
b1100111 (
#1660
0!
0+
0#
#1665
1!
1+
1#
b100101 3
b100100 4
b11100101 P
#1670
0!
0+
0#
#1675
1!
1+
1#
b100110 3
b11100101 0
b100101 4
b11100101 O
b1110101 %
b1110101 -
b11100101 (
#1680
0!
0+
0#
#1685
1!
1+
1#
b100111 3
b100110 4
b1110101 N
#1690
0!
0+
0#
#1695
1!
1+
1#
b101000 3
b1110101 0
b100111 4
b1110101 M
b10111001 %
b10111001 -
b1110101 (
#1700
0!
0+
0#
#1705
1!
1+
1#
b101001 3
b101000 4
b10111001 L
#1710
0!
0+
0#
#1715
1!
1+
1#
b101010 3
b10111001 0
b101001 4
b10111001 K
b100010 %
b100010 -
b10111001 (
#1720
0!
0+
0#
#1725
1!
1+
1#
b101011 3
b101010 4
b100010 J
#1730
0!
0+
0#
#1735
1!
1+
1#
b101100 3
b100010 0
b101011 4
b100010 I
b11001100 %
b11001100 -
b100010 (
#1740
0!
0+
0#
#1745
1!
1+
1#
b101101 3
b101100 4
b11001100 H
#1750
0!
0+
0#
#1755
1!
1+
1#
b101110 3
b11001100 0
b101101 4
b11001100 G
b11011011 %
b11011011 -
b11001100 (
#1760
0!
0+
0#
#1765
1!
1+
1#
b101111 3
b101110 4
b11011011 F
#1770
0!
0+
0#
#1775
1!
1+
1#
b110000 3
b11011011 0
b101111 4
b11011011 E
b10111100 %
b10111100 -
b11011011 (
#1780
0!
0+
0#
#1785
1!
1+
1#
b110001 3
b110000 4
b10111100 D
#1790
0!
0+
0#
#1795
1!
1+
1#
b110010 3
b10111100 0
b110001 4
b10111100 C
b1101011 %
b1101011 -
b10111100 (
#1800
0!
0+
0#
#1805
1!
1+
1#
b110011 3
b110010 4
b1101011 B
#1810
0!
0+
0#
#1815
1!
1+
1#
b110100 3
b1101011 0
b110011 4
b1101011 A
b101 %
b101 -
b1101011 (
#1820
0!
0+
0#
#1825
1!
1+
1#
b110101 3
b110100 4
b101 @
#1830
0!
0+
0#
#1835
1!
1+
1#
b110110 3
b101 0
b110101 4
b101 ?
b1111011 %
b1111011 -
b101 (
#1840
0!
0+
0#
#1845
1!
1+
1#
b110111 3
b110110 4
b1111011 >
#1850
0!
0+
0#
#1855
1!
1+
1#
b111000 3
b1111011 0
b110111 4
b1111011 =
b1101001 %
b1101001 -
b1111011 (
#1860
0!
0+
0#
#1865
1!
1+
1#
b111001 3
b111000 4
b1101001 <
#1870
0!
0+
0#
#1875
1!
1+
1#
b111010 3
b1101001 0
b111001 4
b1101001 ;
b10110 %
b10110 -
b1101001 (
#1880
0!
0+
0#
#1885
1!
1+
1#
b111011 3
b111010 4
b10110 :
#1890
0!
0+
0#
#1895
1!
1+
1#
b111100 3
b10110 0
b111011 4
b10110 9
b11111001 %
b11111001 -
b10110 (
#1900
0!
0+
0#
#1905
1!
1+
1#
b111101 3
b111100 4
b11111001 8
#1910
0!
0+
0#
#1915
1!
1+
1#
b111110 3
b11111001 0
b111101 4
b11111001 7
b10000001 %
b10000001 -
b11111001 (
#1920
0!
0+
0#
#1925
1!
1+
1#
b111111 3
b111110 4
b10000001 6
#1930
0!
0+
0#
#1935
1!
1+
1#
b0 3
b10000001 0
b111111 4
b10000001 5
b11010110 %
b11010110 -
b10000001 (
#1940
0!
0+
0#
#1945
1!
1+
1#
b1 3
b0 4
b11010110 T
#1950
0!
0+
0#
#1955
1!
1+
1#
b10 3
b11010110 0
b1 4
b11010110 S
b11110100 %
b11110100 -
b11010110 (
#1960
0!
0+
0#
#1965
1!
1+
1#
b11 3
b10 4
b11110100 R
#1970
0!
0+
0#
#1975
1!
1+
1#
b100 3
b11110100 0
b11 4
b11110100 Q
b10101010 %
b10101010 -
b11110100 (
#1980
0!
0+
0#
#1985
1!
1+
1#
b101 3
b100 4
b10101010 P
#1990
0!
0+
0#
#1995
1!
1+
1#
b110 3
b10101010 0
b101 4
b10101010 O
b100100 %
b100100 -
b10101010 (
#2000
0!
0+
0#
#2005
1!
1+
1#
b111 3
b110 4
b100100 N
#2010
0!
0+
0#
#2015
1!
1+
1#
b1000 3
b100100 0
b111 4
b100100 M
b100100 (
#2020
0!
0+
0#
#2025
1!
1+
1#
b1001 3
b1000 4
b100100 L
#2030
0!
0+
0#
#2035
1!
1+
1#
b1010 3
b1001 4
b100100 K
#2040
0!
0+
0#
#2045
1!
1+
1#
b1011 3
b1010 4
b100100 J
#2050
0!
0+
0#
#2055
1!
1+
1#
b1100 3
b1011 4
b100100 I
#2060
0!
0+
0#
#2065
1!
1+
1#
b1101 3
b1100 4
b100100 H
#2070
0!
0+
0#
#2075
1!
1+
1#
b1110 3
b1101 4
b100100 G
#2080
0!
0+
0#
#2085
1!
1+
1#
b1111 3
b1110 4
b100100 F
#2090
0!
0+
0#
#2095
1!
1+
1#
b10000 3
b1111 4
b100100 E
#2100
0!
0+
0#
#2105
1!
1+
1#
b10001 3
b10000 4
b100100 D
#2110
0!
0+
0#
#2115
1!
1+
1#
b10010 3
b10001 4
b100100 C
#2120
0!
0+
0#
#2125
1!
1+
1#
b10011 3
b10010 4
b100100 B
#2130
0!
0+
0#
#2135
1!
1+
1#
b10100 3
b10011 4
b100100 A
#2140
0!
0+
0#
#2145
1!
1+
1#
b10101 3
b10100 4
b100100 @
#2150
0!
0+
0#
#2155
1!
1+
1#
b10110 3
b10101 4
b100100 ?
#2160
0!
0+
0#
#2165
1!
1+
1#
b10111 3
b10110 4
b100100 >
#2170
0!
0+
0#
#2175
1!
1+
1#
b11000 3
b10111 4
b100100 =
#2180
0!
0+
0#
#2185
1!
1+
1#
b11001 3
b11000 4
b100100 <
#2190
0!
0+
0#
#2195
1!
1+
1#
b11010 3
b11001 4
b100100 ;
#2200
0!
0+
0#
#2205
1!
1+
1#
b11011 3
b11010 4
b100100 :
#2210
0!
0+
0#
#2215
1!
1+
1#
b11100 3
b11011 4
b100100 9
#2220
0!
0+
0#
#2225
1!
1+
1#
b11101 3
b11100 4
b100100 8
#2230
0!
0+
0#
#2235
1!
1+
1#
b11110 3
b11101 4
b100100 7
#2240
0!
0+
0#
#2245
1!
1+
1#
b11111 3
b11110 4
b100100 6
#2250
0!
0+
0#
#2255
1!
1+
1#
b100000 3
b11111 4
b100100 5
#2260
0!
0+
0#
#2265
1!
1+
1#
b100001 3
b100000 4
b100100 T
#2270
0!
0+
0#
#2275
1!
1+
1#
b100010 3
b100001 4
b100100 S
#2280
0!
0+
0#
#2285
1!
1+
1#
b100011 3
b100010 4
b100100 R
#2290
0!
0+
0#
#2295
1!
1+
1#
b100100 3
b100011 4
b100100 Q
#2300
0!
0+
0#
#2305
1!
1+
1#
b100101 3
b100100 4
b100100 P
#2310
0!
0+
0#
#2315
1!
1+
1#
b100110 3
b100101 4
b100100 O
#2320
0!
0+
0#
#2325
1!
1+
1#
b100111 3
b100110 4
#2330
0!
0+
0#
#2335
1!
1+
1#
b101000 3
b100111 4
#2340
0!
0+
0#
#2345
1!
1+
1#
b101001 3
b101000 4
#2350
0!
0+
0#
#2355
1!
1+
1#
b101010 3
b101001 4
#2360
0!
0+
0#
#2365
1!
1+
1#
b101011 3
b101010 4
#2370
0!
0+
0#
#2375
1!
1+
1#
b101100 3
b101011 4
#2380
0!
0+
0#
#2385
1!
1+
1#
b101101 3
b101100 4
#2390
0!
0+
0#
#2395
1!
1+
1#
b101110 3
b101101 4
#2400
0!
0+
0#
#2405
1!
1+
1#
b101111 3
b101110 4
#2410
0!
0+
0#
#2415
1!
1+
1#
b110000 3
b101111 4
#2420
0!
0+
0#
#2425
1!
1+
1#
b110001 3
b110000 4
#2430
0!
0+
0#
#2435
1!
1+
1#
b110010 3
b110001 4
#2440
0!
0+
0#
#2445
1!
1+
1#
b110011 3
b110010 4
#2450
0!
0+
0#
#2455
1!
1+
1#
b110100 3
b110011 4
#2460
0!
0+
0#
#2465
1!
1+
1#
b110101 3
b110100 4
#2470
0!
0+
0#
#2475
1!
1+
1#
b110110 3
b110101 4
#2480
0!
0+
0#
#2485
1!
1+
1#
b110111 3
b110110 4
#2490
0!
0+
0#
#2495
1!
1+
1#
b111000 3
b110111 4
#2500
0!
0+
0#
#2505
1!
1+
1#
b111001 3
b111000 4
